[{"id":1,"id_cuenta":"06042112788061802","tipo":"sit","fecha":"12/28/2018","referencia":"ipsum primis in","importe":495115710.04},
{"id":2,"id_cuenta":"6771104085156044","tipo":"praesent","fecha":"11/7/2018","referencia":"suspendisse","importe":368514782.21},
{"id":3,"id_cuenta":"3552272130738975","tipo":"phasellus","fecha":"12/10/2018","referencia":"pede libero quis","importe":222208522.79},
{"id":4,"id_cuenta":"4903662913211329","tipo":"nulla","fecha":"8/18/2019","referencia":"tincidunt lacus","importe":587941410.37},
{"id":5,"id_cuenta":"6767441188471722","tipo":"tincidunt","fecha":"1/20/2019","referencia":"volutpat","importe":456299.49},
{"id":6,"id_cuenta":"30283463308359","tipo":"sapien","fecha":"1/23/2019","referencia":"blandit mi","importe":272035631.45},
{"id":7,"id_cuenta":"5177108764826597","tipo":"donec","fecha":"8/7/2019","referencia":"maecenas ut","importe":195272925.5},
{"id":8,"id_cuenta":"3536466916640634","tipo":"eget","fecha":"10/10/2018","referencia":"mauris vulputate","importe":218240568.19},
{"id":9,"id_cuenta":"6771661642550022064","tipo":"mauris","fecha":"5/23/2019","referencia":"convallis morbi odio","importe":62982213.36},
{"id":10,"id_cuenta":"3575560138256831","tipo":"lectus","fecha":"9/28/2019","referencia":"suspendisse potenti","importe":562216866.07}]
